<svg xmlns="http://www.w3.org/2000/svg" viewBox="0 0 24 24" width="16" height="16">
  <circle cx="12" cy="12" r="10" fill="#FFD700" />
  <circle cx="8.5" cy="10.5" r="1.5" fill="#000" />
  <circle cx="15.5" cy="10.5" r="1.5" fill="#000" />
  <path d="M8 15c1 2 3 2 4 2s3 0 4-2" stroke="#000" stroke-width="1.5" fill="none" />
</svg>
